{
  "protocol_version" : "0.0.5",
  "configuration" : {
    "version" : "(6.8.0.105) (Debian 6.8.0.105+dfsg-2)",
    "tlc" : "__thread",
    "sigsgev" : "altstack",
    "notifications" : "epoll",
    "architecture" : "amd64",
    "disabled_features" : "none",
    "smallconfig" : "disabled",
    "bigarrays" : "disabled",
    "softdebug" : "enabled",
    "interpreter" : "enabled",
    "llvm_support" : "disabled",
    "suspend" : "hybrid"
  },
  "memory" : {
    "minor_gc_time" : "97525",
    "major_gc_time" : "0",
    "minor_gc_count" : "1",
    "major_gc_count" : "0",
    "major_gc_time_concurrent" : "0"
 },
  "threads" : [
 {
    "is_managed" : true,
    "offset_free_hash" : "0xd4716fb0",
    "offset_rich_hash" : "0xd471709b",
    "crashed" : true,
    "native_thread_id" : "0x7feba6fcf700",
    "thread_info_addr" : "0x7feba0000b60",
    "thread_name" : "Finalizer",
    "ctx" : {
      "IP" : "0x7febaa3f418b",
      "SP" : "0x7feba6fce720",
      "BP" : "0x7feba6fcea70"
  },
    "managed_frames" : [
  {
      "is_managed" : "false",
      "native_address" : "unregistered"
   }
,
  {
      "is_managed" : "true",
      "guid" : "918680A3-1AA8-4CB8-9CFA-7CAB56EA29B8",
      "token" : "0x00000",
      "native_offset" : "0x0",
      "filename" : "glib-sharp.dll",
      "sizeofimage" : "0x1c000",
      "timestamp" : "0x0",
      "il_offset" : "0x0000c"
   }
,
  {
      "is_managed" : "true",
      "guid" : "918680A3-1AA8-4CB8-9CFA-7CAB56EA29B8",
      "token" : "0x60000f9",
      "native_offset" : "0x0",
      "filename" : "glib-sharp.dll",
      "sizeofimage" : "0x1c000",
      "timestamp" : "0x0",
      "il_offset" : "0x000b5"
   }
,
  {
      "is_managed" : "true",
      "guid" : "918680A3-1AA8-4CB8-9CFA-7CAB56EA29B8",
      "token" : "0x60000fe",
      "native_offset" : "0x0",
      "filename" : "glib-sharp.dll",
      "sizeofimage" : "0x1c000",
      "timestamp" : "0x0",
      "il_offset" : "0x00000"
   }
,
  {
      "is_managed" : "true",
      "guid" : "918680A3-1AA8-4CB8-9CFA-7CAB56EA29B8",
      "token" : "0x60000e8",
      "native_offset" : "0x0",
      "filename" : "glib-sharp.dll",
      "sizeofimage" : "0x1c000",
      "timestamp" : "0x0",
      "il_offset" : "0x00000"
   }
,
  {
      "is_managed" : "true",
      "guid" : "12B418A7-818C-4CA0-893F-EEAAF67F1E7F",
      "token" : "0x00000",
      "native_offset" : "0x0",
      "filename" : "mscorlib.dll",
      "sizeofimage" : "0x49e000",
      "timestamp" : "0x0",
      "il_offset" : "0x0002a"
   }

  ],
  "unmanaged_frames" : [
 {
    "is_managed" : "false",
    "native_address" : "0x55e12959be72",
    "native_offset" : "0x00000"
  }
,
 {
    "is_managed" : "false",
    "native_address" : "0x55e12978ed39",
    "native_offset" : "0x00000"
  }
,
 {
    "is_managed" : "false",
    "native_address" : "0x55e12978ff72",
    "native_offset" : "0x00000"
  }
,
 {
    "is_managed" : "false",
    "native_address" : "0x55e1297997fc",
    "native_offset" : "0x00000"
  }
,
 {
    "is_managed" : "false",
    "native_address" : "0x55e1295f107f",
    "native_offset" : "0x00000"
  }
,
 {
    "is_managed" : "false",
    "native_address" : "0x55e1295f1250",
    "native_offset" : "0x00000"
  }
,
 {
    "is_managed" : "false",
    "native_address" : "0x55e12959e129",
    "native_offset" : "0x00000"
  }
,
 {
    "is_managed" : "false",
    "native_address" : "0x55e1295f0467",
    "native_offset" : "0x00000"
  }
,
 {
    "is_managed" : "false",
    "native_address" : "0x7febaa5d03c0",
    "native_offset" : "0x00000"
  }
,
 {
    "is_managed" : "false",
    "native_address" : "0x7febaa3f418b",
    "native_offset" : "0x00000"
  }
,
 {
    "is_managed" : "false",
    "native_address" : "0x7febaa3d3859",
    "native_offset" : "0x00000"
  }
,
 {
    "is_managed" : "false",
    "native_address" : "0x7febaa43e3ee",
    "native_offset" : "0x00000"
  }
,
 {
    "is_managed" : "false",
    "native_address" : "0x7febaa44647c",
    "native_offset" : "0x00000"
  }
,
 {
    "is_managed" : "false",
    "native_address" : "0x7febaa447cac",
    "native_offset" : "0x00000"
  }
,
 {
    "is_managed" : "true",
    "guid" : "918680A3-1AA8-4CB8-9CFA-7CAB56EA29B8",
    "token" : "0x00000",
    "native_offset" : "0x0",
    "filename" : "glib-sharp.dll",
    "sizeofimage" : "0x1c000",
    "timestamp" : "0x0",
    "il_offset" : "0x00000"
  }

 ]
},
{
  "is_managed" : false,
  "offset_free_hash" : "0x0",
  "offset_rich_hash" : "0x0",
  "crashed" : false,
  "native_thread_id" : "0x7feb88a33700",
  "thread_info_addr" : "0x7feb68000b60",
  "thread_name" : "Thread Pool Wor",
  "ctx" : {
    "IP" : "0x7febaa5ce618",
    "SP" : "0x7feb88a32c70",
    "BP" : "0x55e1299d4988"
 },
  "unmanaged_frames" : [
 {
    "is_managed" : "false",
    "native_address" : "0x55e12959be72",
    "native_offset" : "0x00000"
  }
,
 {
    "is_managed" : "false",
    "native_address" : "0x55e12978ed39",
    "native_offset" : "0x00000"
  }
,
 {
    "is_managed" : "false",
    "native_address" : "0x55e12978ff72",
    "native_offset" : "0x00000"
  }
,
 {
    "is_managed" : "false",
    "native_address" : "0x55e1297996b7",
    "native_offset" : "0x00000"
  }
,
 {
    "is_managed" : "false",
    "native_address" : "0x55e1295f0379",
    "native_offset" : "0x00000"
  }
,
 {
    "is_managed" : "false",
    "native_address" : "0x7febaa5d03c0",
    "native_offset" : "0x00000"
  }
,
 {
    "is_managed" : "false",
    "native_address" : "0x7febaa5ce618",
    "native_offset" : "0x00000"
  }
,
 {
    "is_managed" : "false",
    "native_address" : "0x7febaa5ce743",
    "native_offset" : "0x00000"
  }
,
 {
    "is_managed" : "false",
    "native_address" : "0x55e1297fbf81",
    "native_offset" : "0x00000"
  }
,
 {
    "is_managed" : "false",
    "native_address" : "0x55e129798f3a",
    "native_offset" : "0x00000"
  }
,
 {
    "is_managed" : "false",
    "native_address" : "0x7febaa5c4609",
    "native_offset" : "0x00000"
  }
,
 {
    "is_managed" : "false",
    "native_address" : "0x7febaa4d0293",
    "native_offset" : "0x00000"
  }

 ]
},
{
  "is_managed" : true,
  "offset_free_hash" : "0x67680e00",
  "offset_rich_hash" : "0x6768102f",
  "crashed" : false,
  "native_thread_id" : "0x7febaa3a9780",
  "thread_info_addr" : "0x55e12a2c08a0",
  "thread_name" : "mono",
  "ctx" : {
    "IP" : "0x7febaa4c3aff",
    "SP" : "0x7fff12267ab0",
    "BP" : "0x55e12acf5290"
 },
  "managed_frames" : [
 {
    "is_managed" : "false",
    "native_address" : "unregistered"
  }
,
 {
    "is_managed" : "true",
    "guid" : "91487213-BF39-4F4A-AF87-012594ABED2F",
    "token" : "0x00000",
    "native_offset" : "0x0",
    "filename" : "gtk-sharp.dll",
    "sizeofimage" : "0x162000",
    "timestamp" : "0x0",
    "il_offset" : "0x0000c"
  }
,
 {
    "is_managed" : "true",
    "guid" : "91487213-BF39-4F4A-AF87-012594ABED2F",
    "token" : "0x6004129",
    "native_offset" : "0x0",
    "filename" : "gtk-sharp.dll",
    "sizeofimage" : "0x162000",
    "timestamp" : "0x0",
    "il_offset" : "0x00000"
  }
,
 {
    "is_managed" : "true",
    "guid" : "1B3FF345-7FF6-412B-9678-2DE825379D42",
    "token" : "0x600029d",
    "native_offset" : "0x0",
    "filename" : "Pinta.exe",
    "sizeofimage" : "0x48000",
    "timestamp" : "0x0",
    "il_offset" : "0x001f9"
  }
,
 {
    "is_managed" : "true",
    "guid" : "1B3FF345-7FF6-412B-9678-2DE825379D42",
    "token" : "0x00000",
    "native_offset" : "0x0",
    "filename" : "Pinta.exe",
    "sizeofimage" : "0x48000",
    "timestamp" : "0x0",
    "il_offset" : "0x0002a"
  }

 ],
"unmanaged_frames" : [
{
  "is_managed" : "false",
  "native_address" : "0x55e12959be72",
  "native_offset" : "0x00000"
 }
,
{
  "is_managed" : "false",
  "native_address" : "0x55e12978ed39",
  "native_offset" : "0x00000"
 }
,
{
  "is_managed" : "false",
  "native_address" : "0x55e12978ff72",
  "native_offset" : "0x00000"
 }
,
{
  "is_managed" : "false",
  "native_address" : "0x55e1297996b7",
  "native_offset" : "0x00000"
 }
,
{
  "is_managed" : "false",
  "native_address" : "0x55e1295f0379",
  "native_offset" : "0x00000"
 }
,
{
  "is_managed" : "false",
  "native_address" : "0x7febaa5d03c0",
  "native_offset" : "0x00000"
 }
,
{
  "is_managed" : "false",
  "native_address" : "0x7febaa4c3aff",
  "native_offset" : "0x00000"
 }
,
{
  "is_managed" : "false",
  "native_address" : "0x7feba5a6d36e",
  "native_offset" : "0x00000"
 }
,
{
  "is_managed" : "false",
  "native_address" : "0x7feba5a6d6f3",
  "native_offset" : "0x00000"
 }
,
{
  "is_managed" : "false",
  "native_address" : "0x7feba62b5092",
  "native_offset" : "0x00000"
 }
,
{
  "is_managed" : "true",
  "guid" : "91487213-BF39-4F4A-AF87-012594ABED2F",
  "token" : "0x00000",
  "native_offset" : "0x0",
  "filename" : "gtk-sharp.dll",
  "sizeofimage" : "0x162000",
  "timestamp" : "0x0",
  "il_offset" : "0x00000"
 }

]
},
{
"is_managed" : false,
"offset_free_hash" : "0x0",
"offset_rich_hash" : "0x0",
"crashed" : false,
"native_thread_id" : "0x7feb88832700",
"thread_info_addr" : "0x7feb5c000b60",
"thread_name" : "Thread Pool Wor",
"ctx" : {
  "IP" : "0x7febaa5ce618",
  "SP" : "0x7feb88831c70",
  "BP" : "0x55e1299d4988"
},
"unmanaged_frames" : [
{
  "is_managed" : "false",
  "native_address" : "0x55e12959be72",
  "native_offset" : "0x00000"
 }
,
{
  "is_managed" : "false",
  "native_address" : "0x55e12978ed39",
  "native_offset" : "0x00000"
 }
,
{
  "is_managed" : "false",
  "native_address" : "0x55e12978ff72",
  "native_offset" : "0x00000"
 }
,
{
  "is_managed" : "false",
  "native_address" : "0x55e1297996b7",
  "native_offset" : "0x00000"
 }
,
{
  "is_managed" : "false",
  "native_address" : "0x55e1295f0379",
  "native_offset" : "0x00000"
 }
,
{
  "is_managed" : "false",
  "native_address" : "0x7febaa5d03c0",
  "native_offset" : "0x00000"
 }
,
{
  "is_managed" : "false",
  "native_address" : "0x7febaa5ce618",
  "native_offset" : "0x00000"
 }
,
{
  "is_managed" : "false",
  "native_address" : "0x7febaa5ce743",
  "native_offset" : "0x00000"
 }
,
{
  "is_managed" : "false",
  "native_address" : "0x55e1297fbf81",
  "native_offset" : "0x00000"
 }
,
{
  "is_managed" : "false",
  "native_address" : "0x55e129798f3a",
  "native_offset" : "0x00000"
 }
,
{
  "is_managed" : "false",
  "native_address" : "0x7febaa5c4609",
  "native_offset" : "0x00000"
 }
,
{
  "is_managed" : "false",
  "native_address" : "0x7febaa4d0293",
  "native_offset" : "0x00000"
 }

]
},
{
"is_managed" : false,
"offset_free_hash" : "0x0",
"offset_rich_hash" : "0x0",
"crashed" : false,
"native_thread_id" : "0x7feb88c34700",
"thread_info_addr" : "0x7feb64000b60",
"thread_name" : "Thread Pool Wor",
"ctx" : {
  "IP" : "0x7febaa5ce618",
  "SP" : "0x7feb88c33c70",
  "BP" : "0x55e1299d4988"
},
"unmanaged_frames" : [
{
  "is_managed" : "false",
  "native_address" : "0x55e12959be72",
  "native_offset" : "0x00000"
 }
,
{
  "is_managed" : "false",
  "native_address" : "0x55e12978ed39",
  "native_offset" : "0x00000"
 }
,
{
  "is_managed" : "false",
  "native_address" : "0x55e12978ff72",
  "native_offset" : "0x00000"
 }
,
{
  "is_managed" : "false",
  "native_address" : "0x55e1297996b7",
  "native_offset" : "0x00000"
 }
,
{
  "is_managed" : "false",
  "native_address" : "0x55e1295f0379",
  "native_offset" : "0x00000"
 }
,
{
  "is_managed" : "false",
  "native_address" : "0x7febaa5d03c0",
  "native_offset" : "0x00000"
 }
,
{
  "is_managed" : "false",
  "native_address" : "0x7febaa5ce618",
  "native_offset" : "0x00000"
 }
,
{
  "is_managed" : "false",
  "native_address" : "0x7febaa5ce743",
  "native_offset" : "0x00000"
 }
,
{
  "is_managed" : "false",
  "native_address" : "0x55e1297fbf81",
  "native_offset" : "0x00000"
 }
,
{
  "is_managed" : "false",
  "native_address" : "0x55e129798f3a",
  "native_offset" : "0x00000"
 }
,
{
  "is_managed" : "false",
  "native_address" : "0x7febaa5c4609",
  "native_offset" : "0x00000"
 }
,
{
  "is_managed" : "false",
  "native_address" : "0x7febaa4d0293",
  "native_offset" : "0x00000"
 }

]
},
{
"is_managed" : false,
"offset_free_hash" : "0x0",
"offset_rich_hash" : "0x0",
"crashed" : false,
"native_thread_id" : "0x7feb89036700",
"thread_info_addr" : "0x7feb6c000b60",
"thread_name" : "mono",
"ctx" : {
  "IP" : "0x7febaa5cb7b1",
  "SP" : "0x7feb89035bc0",
  "BP" : "0x55e1299e3460"
},
"unmanaged_frames" : [
{
  "is_managed" : "false",
  "native_address" : "0x55e12959be72",
  "native_offset" : "0x00000"
 }
,
{
  "is_managed" : "false",
  "native_address" : "0x55e12978ed39",
  "native_offset" : "0x00000"
 }
,
{
  "is_managed" : "false",
  "native_address" : "0x55e12978ff72",
  "native_offset" : "0x00000"
 }
,
{
  "is_managed" : "false",
  "native_address" : "0x55e1297996b7",
  "native_offset" : "0x00000"
 }
,
{
  "is_managed" : "false",
  "native_address" : "0x55e1295f0379",
  "native_offset" : "0x00000"
 }
,
{
  "is_managed" : "false",
  "native_address" : "0x7febaa5d03c0",
  "native_offset" : "0x00000"
 }
,
{
  "is_managed" : "false",
  "native_address" : "0x7febaa5cb7b1",
  "native_offset" : "0x00000"
 }
,
{
  "is_managed" : "false",
  "native_address" : "0x55e12985339e",
  "native_offset" : "0x00000"
 }
,
{
  "is_managed" : "false",
  "native_address" : "0x55e12985e609",
  "native_offset" : "0x00000"
 }
,
{
  "is_managed" : "false",
  "native_address" : "0x55e1297fcbc3",
  "native_offset" : "0x00000"
 }
,
{
  "is_managed" : "false",
  "native_address" : "0x55e129798f3a",
  "native_offset" : "0x00000"
 }
,
{
  "is_managed" : "false",
  "native_address" : "0x7febaa5c4609",
  "native_offset" : "0x00000"
 }
,
{
  "is_managed" : "false",
  "native_address" : "0x7febaa4d0293",
  "native_offset" : "0x00000"
 }

]
}
]
}